Sampling Distributions – PSYC 2020L
…
  id Q1 Q2 Q3 Q4 Q5
1  1  0  0  0  1  1
2  2  0  0  1  1  1
3  3  0  1  1  1  0
4  4  0  1  1  0  0
5  5  0  0  0  0  1

dat |>
  pivot_longer(cols = starts_with("Q"),
               names_to = "question", values_to = "correct")

# A tibble: 25 × 3
      id question correct
   <int> <chr>      <int>
 1     1 Q1             0
 2     1 Q2             0
 3     1 Q3             0
 4     1 Q4             1
 5     1 Q5             1
 6     2 Q1             0
 7     2 Q2             0
 8     2 Q3             1
 9     2 Q4             1
10     2 Q5             1
# ℹ 15 more rows
…
